{
    "bail": true,
    "verbose": true,
    "cache": false,
    "clearMocks": true,
    "collectCoverage": true,
    "coverageDirectory": "<rootDir>/reports/coverage",
    "testRegex": "(.*\\.(spec))\\.(ts|tsx|js|jsx)$",
    "testResultsProcessor":
        "<rootDir>/test/__support__/testResultsProcessor.js",
    "setupFiles": ["<rootDir>/test/__support__/shims.js"],
    "setupTestFrameworkScriptFile": "<rootDir>/test/__support__/setupTests.js",
    "transform": {
        "^.+\\.(tsx?)$": "<rootDir>/test/__support__/typescript-preprocessor.js"
    },
    "moduleDirectories": ["node_modules", "<rootDir>/test"],
    "testPathIgnorePatterns": ["/js", "/reports"],
    "watchPathIgnorePatterns": [".*reports.*\\.js", ".*js.*\\.js"],
    "modulePathIgnorePatterns": ["<rootDir>/reports/", "<rootDir>/js"],
    "moduleFileExtensions": ["ts", "tsx", "js", "jsx", "json"],
    "reporters": ["default", "jest-stare"],
    "coverageReporters": ["json", "lcov", "text"],
    "coveragePathIgnorePatterns": [
        "/node_modules/",
        "/test/.*\\.(tsx?|jsx?)$",
        "/js/.*\\.(tsx?|jsx?)$"
    ]
}
